[
	{
		"id": 1,
		"area": "80",
		"buildingType": "آپارتمان",
		"address": "خ شمشیری",
		"imageURL": "",
		"dealType": 0,
		"price": {
			"sellPrice": 3000
		},
		"phone": "+989123456789",
		"description": "",
		"expireTime": "2018-10-10"
	},
	{
		"id": 4,
		"area": "1000",
		"buildingType": "ویلایی",
		"address": "USA-",
		"imageURL": "https://upload.wikimedia.org/wikipedia/commons/thumb/b/b6/1122-WAS-The_White_House.JPG/270px-1122-WAS-The_White_House.JPG",
		"dealType": 1,
		"price": {
			"basePrice": 3000000,
			"rentPrice": 100000
		},
		"phone": "+19123456789",
		"description": "قابلی نداره",
		"expireTime": "2018-12-10"
	}

]
